Change Component DesignItemId : Designator=M1 Old DesignItemId=DIODES INC MOSFET N-CH SOT-223 New DesignItemId=MOSFET-P
Change Component Comment : Designator=M1 Old Comment=DMG2302U-7 New Comment=DMP2305U
Change Component Description : Designator=M1 Old Description= New Description=P-Channel MOSFET
Change Component Library : Designator=M1 Old Library=N-CH FETs.SchLib New Library=Miscellaneous Devices.IntLib
Change component parameters: Designator = "M1"; UniqueID = "\KPIHHMAS"
Change component parameters. Clean all parameters for all variants
Change component parameters (AddParameter): Name = "LatestRevisionDate"; Value = "17-Jul-2002"; VariantName = "[No Variations]"
Change component parameters (AddParameter): Name = "LatestRevisionNote"; Value = "Re-released for DXP Platform."; VariantName = "[No Variations]"
Change component parameters (AddParameter): Name = "PackageDescription"; Value = "TO, Flat Index; 3 In-Line, Axial Leads; Body Dia. 4.6mm; Lead Dia. 0.5 mm (max)"; VariantName = "[No Variations]"
Change component parameters (AddParameter): Name = "PackageReference"; Value = "E3"; VariantName = "[No Variations]"
Change component parameters (AddParameter): Name = "PackageVersion"; Value = "1995/1996"; VariantName = "[No Variations]"
Change component parameters (AddParameter): Name = "Published"; Value = "8-Jun-2000"; VariantName = "[No Variations]"
Change component parameters (AddParameter): Name = "Publisher"; Value = "Altium Limited"; VariantName = "[No Variations]"
