Removed Pin From Net: NetName=VBAT+ Pin=Battery-1
Added Pin To Net: NetName=GND Pin=Battery-2
Added Pin To Net: NetName=GND Pin=M1-1
Added Pin To Net: NetName=VBAT+ Pin=M1-2
Added Pin To Net: NetName=NetBattery_1 Pin=Battery-1
Added Pin To Net: NetName=NetBattery_1 Pin=M1-3
Added Net: Name=NetBattery_1
